<svg width="22px" height="13px" viewBox="0 0 22 13" version="1.1" xmlns="http://www.w3.org/2000/svg" xmlns:xlink="http://www.w3.org/1999/xlink">
    <defs>
        <polygon id="path-1" points="0.0369444444 0.147435111 0.444444444 0.147435111 0.444444444 0.397435111 0.0369444444 0.397435111"></polygon>
        <polygon id="path-3" points="0.0113042988 0.0157952044 16.9787142 0.0157952044 16.9787142 5 0.0113042988 5"></polygon>
        <polygon id="path-5" points="0 0.0135473659 7.99003839 0.0135473659 7.99003839 9.98732817 0 9.98732817"></polygon>
    </defs>
    <g id="Symbols" stroke="none" stroke-width="1" fill="none" fill-rule="evenodd">
        <g id="Site-Elements/Footer" transform="translate(-1290.000000, -175.000000)">
            <g id="Group-206" transform="translate(1290.000000, 175.000000)">
                <path d="M19.95,5.95847429 C19.9666554,5.99059694 19.9872573,5.95901721 20.0064545,5.96363201 C20.0270563,5.93187131 20.0643136,5.93223325 20.0442468,5.87386957 C19.9938124,5.86744504 19.9671905,5.90047255 19.95,5.95847429" id="Fill-1" fill="#FFFFFF"></path>
                <path d="M19.95,5.93224671 C19.9774555,5.97594671 20.0221578,5.93624671 20.05,5.93014671 C20.0281129,5.87524671 19.9725058,5.88754671 19.95,5.93224671" id="Fill-3" fill="#FFFFFF"></path>
                <path d="M19.9652981,5.94442146 C19.9759981,5.95122818 20.0046981,5.9555139 19.9990981,5.97307692 C20.0620981,5.96400129 20.0286981,5.89358112 19.9964981,5.87307692 L19.9652981,5.94442146 Z" id="Fill-5" fill="#FFFFFF"></path>
                <polygon id="Fill-7" fill="#FFFFFF" points="19.9636691 5.97132692 20.05 5.95302692 19.95 5.87482692"></polygon>
                <path d="M19.95,5.96117692 C19.9838412,5.92517692 20.0149539,5.95007692 20.05,5.93327692 L20.046988,5.88497692 C20.0156981,5.90977692 19.9660879,5.90377692 19.95,5.96117692" id="Fill-9" fill="#FFFFFF"></path>
                <path d="M19.95,5.94414636 C19.9800686,5.95734636 20.059514,5.96954636 20.0490586,5.89224636 C20.0160136,5.90954636 19.9503053,5.89424636 19.95,5.94414636" id="Fill-11" fill="#FFFFFF"></path>
                <path d="M19.8421215,5.96560639 L19.8716315,5.96816405 C19.9131563,5.99539073 19.9552291,5.8993548 19.998651,5.92596269 L19.9993676,5.93388318 C20.0483964,5.8930019 20.1016408,5.9204761 20.1578785,5.87307692 C20.0533498,5.8831838 19.942308,5.90772906 19.847075,5.95574703 L19.8421215,5.96560639 Z" id="Fill-13" fill="#FFFFFF"></path>
                <path d="M18.95,5.95777041 C18.9868402,5.98727041 19.0620962,5.95617041 19.0483417,5.88047041 L18.9526055,5.87737041 L18.95,5.95777041 Z" id="Fill-15" fill="#FFFFFF"></path>
                <path d="M19.95,5.92099252 C19.9791902,6.04099252 20.0209124,5.91399252 20.05,5.87479252 C20.0172988,5.88649252 19.9890825,5.94499252 19.95,5.92099252" id="Fill-17" fill="#FFFFFF"></path>
                <path d="M19.96845,5.9368268 L20.03155,5.9409268 C20.01845,5.8678268 20.00285,5.9282268 19.96845,5.9368268" id="Fill-19" fill="#FFFFFF"></path>
                <path d="M20.0030659,5.92142677 L20.0013659,5.92052677 C19.9941659,5.92772677 19.9964659,5.92662677 20.0030659,5.92142677" id="Fill-21" fill="#FFFFFF"></path>
                <path d="M20.0333171,5.87307692 L19.9883171,5.88045183 C19.9451171,5.89714241 19.9806171,5.93964516 19.9768171,5.96914479 C20.0646171,5.99330731 19.9918171,5.89927725 20.0333171,5.87307692" id="Fill-23" fill="#FFFFFF"></path>
                <path d="M20.045,5.89132692 L19.955,5.90652692 L19.9636,5.95482692 C19.9979,5.93912692 20.0231,5.92482692 20.045,5.89132692" id="Fill-25" fill="#FFFFFF"></path>
                <path d="M19.988308,5.89164737 C19.981108,5.90274737 19.964808,5.91544737 19.977208,5.93334737 C19.998608,5.94954737 20.011008,5.96744737 20.027308,5.95464737 L20.015308,5.88714737 L19.988308,5.89164737 Z" id="Fill-27" fill="#FFFFFF"></path>
                <polygon id="Fill-29" fill="#FFFFFF" points="19.95 5.91492692 19.9692273 5.93122692 20.05 5.91592692"></polygon>
                <path d="M20.1072688,5.87307692 L20.0088108,5.93087576 C19.9667802,5.89742095 19.910648,5.86250841 19.8927312,5.91644427 L19.9746846,5.9508466 L19.9707851,5.95317896 C19.9764131,5.95551133 19.9821254,5.95645885 19.9878798,5.95645885 L20.0273389,5.97307692 L20.0279502,5.94654631 C20.0270227,5.94581745 20.0259056,5.94486993 20.024957,5.94414106 C20.0524856,5.92759587 20.0804358,5.89756672 20.1072688,5.87307692" id="Fill-31" fill="#FFFFFF"></path>
                <path d="M19.9331072,5.95633999 C19.9549446,6.00472152 20.0259161,5.93690934 20.0668928,5.895707 L20.0657967,5.87307692 L19.9331072,5.95633999 Z" id="Fill-33" fill="#FFFFFF"></path>
                <path d="M19.9266997,5.97307692 C19.9744427,5.96346873 20.0262538,5.97287393 20.0733855,5.93988805 L20.0488289,5.92973855 L20.0519064,5.92216025 C20.039449,5.91546158 20.0272656,5.92885892 20.0171479,5.90805244 L20.0248205,5.88914054 C20.0172322,5.89120427 20.0060395,5.8605866 20.0002639,5.87899103 L20.0020767,5.89533173 C20.0250102,5.99679293 19.9232639,5.90669918 19.9266997,5.97307692" id="Fill-35" fill="#FFFFFF"></path>
                <path d="M19.8282135,5.67576658 C19.7712434,5.68259992 19.6863049,5.70620603 19.6181923,5.69829591 L19.6174285,5.69432015 L19.6607177,5.6813782 L19.6599539,5.67736102 C19.6433975,5.67789941 19.6251114,5.69102772 19.6135871,5.67431708 C19.6214497,5.65042108 19.6793858,5.67019637 19.6614815,5.64209682 L19.6614591,5.64207611 C19.6780379,5.64263521 19.6945718,5.64307005 19.7112181,5.64375339 C19.7581465,5.64569986 19.8052996,5.6481433 19.8531941,5.65180845 C19.8480272,5.60784726 19.8143529,5.61451495 19.7888331,5.60600433 C19.7845649,5.60457554 19.7804763,5.60277402 19.776837,5.60018563 C19.7665258,5.62435083 19.7489136,5.61225788 19.7440388,5.59649977 L19.7343116,5.59612704 C19.7322,5.59343512 19.7317956,5.59034976 19.7362211,5.58716086 L19.6999633,5.58252247 C19.710634,5.56231233 19.6776335,5.55305626 19.6895622,5.52853904 C19.6597293,5.52495671 19.6832048,5.56042799 19.6569437,5.564528 C19.6686028,5.5709472 19.6856309,5.56210526 19.6907079,5.57780125 C19.685294,5.58169419 19.6815873,5.5887139 19.6756117,5.59107451 C19.6800822,5.59111592 19.6846425,5.59239976 19.6889332,5.59453259 L19.645015,5.59297956 C19.6217866,5.62329477 19.5987155,5.5776563 19.5763858,5.57262447 C19.563244,5.58125934 19.5474739,5.57187902 19.5308726,5.57258306 L19.5237288,5.55910273 L19.5389149,5.55065423 L19.5032187,5.55680424 C19.5075319,5.55473353 19.5089471,5.5624987 19.5128335,5.56548052 C19.4951764,5.57869166 19.4730488,5.57113356 19.4523365,5.57136134 C19.4585142,5.5514204 19.4465406,5.55108908 19.4330843,5.55036433 C19.4443166,5.54804514 19.45483,5.54491836 19.464647,5.54930827 C19.4864826,5.54380018 19.5062065,5.5056991 19.5314117,5.52853904 L19.6295369,5.5193865 C19.6332885,5.50642385 19.6499123,5.49559403 19.6618634,5.51433397 C19.6828453,5.50021172 19.7206307,5.50716931 19.7313014,5.48120259 C19.7541254,5.4797738 19.7820713,5.48499199 19.8022894,5.49410312 C19.7972573,5.50085364 19.7904281,5.50333849 19.7839358,5.50391829 C19.7901136,5.50640314 19.7944268,5.51478952 19.8001777,5.51917943 C19.7964486,5.53903755 19.7786342,5.52945015 19.7675367,5.5383335 C19.7737819,5.53903755 19.7773762,5.5421229 19.7797125,5.54626433 L19.7741413,5.5462022 L19.7789487,5.54957746 L19.7812176,5.54922544 C19.7834192,5.55485778 19.7840482,5.56179466 19.785396,5.5677376 C19.787328,5.57651741 19.7907875,5.58324722 19.8033228,5.58034823 C19.800964,5.57537852 19.8002227,5.57096791 19.8000205,5.56676436 C19.7991444,5.54597443 19.8193625,5.53272188 19.8090288,5.51259457 L19.8449271,5.50395971 C19.8332456,5.49503494 19.8507005,5.48432937 19.8529694,5.48207229 C19.8305273,5.47915259 19.8095005,5.477144 19.7893498,5.4756738 C19.795887,5.46925459 19.8012336,5.46223488 19.8106687,5.47664703 C19.8655271,5.48041572 19.9390087,5.47304399 19.9972369,5.46190357 L19.9993485,5.45123941 C19.9193972,5.45757578 19.8464772,5.44633183 19.7732652,5.46600358 L19.7749276,5.47472127 C19.7605952,5.47385157 19.7466671,5.47320965 19.7330761,5.47279551 C19.7333681,5.47111823 19.7339971,5.46989651 19.7341094,5.46801217 C19.7226301,5.46946166 19.7113079,5.47070409 19.6999184,5.47202935 C19.6691644,5.4716152 19.6394438,5.47171874 19.6090492,5.47124248 C19.6237186,5.47223642 19.6389496,5.47579804 19.6536863,5.47730966 C19.6345016,5.47938037 19.6153618,5.48136825 19.5962894,5.4832526 C19.5864499,5.48555109 19.5765879,5.48784958 19.566726,5.49016877 C19.5653332,5.48890564 19.5640527,5.48729048 19.5630643,5.48499199 C19.5739821,5.47470056 19.5865397,5.4713253 19.5997938,5.47099399 C19.5620309,5.47020712 19.5227853,5.46823994 19.4787323,5.46281468 C19.4763735,5.46250408 19.4742394,5.46237983 19.4718806,5.46208993 C19.4616368,5.46093034 19.451011,5.43947777 19.4641528,5.4308222 C19.5036006,5.43367978 19.5567742,5.43324493 19.6113406,5.43649595 C19.6449925,5.43852525 19.6791387,5.44192121 19.7109709,5.44838183 C19.7200017,5.43924999 19.7171712,5.42374037 19.7278418,5.41988885 C19.7352102,5.43084291 19.7474309,5.45753437 19.7653127,5.44181768 C19.7807683,5.40553882 19.7245395,5.43469443 19.7145428,5.40572519 C19.7246519,5.38404485 19.7440837,5.39891255 19.7607075,5.39824992 L19.7611119,5.39319739 L19.7166545,5.38062817 L19.7170813,5.37561705 C19.7845649,5.36039733 19.87166,5.38282313 19.9292591,5.38675748 L19.9277764,5.40433781 C19.9374587,5.3876893 19.9708859,5.38381707 20,5.38201555 C19.99681,5.34621296 19.9201385,5.4211934 19.9527121,5.35393671 L19.9178471,5.35002307 C19.9233734,5.35822308 19.9220929,5.37329786 19.9112201,5.37965494 C19.8846445,5.35134832 19.8606074,5.36640239 19.828236,5.3577054 L19.8338296,5.34058063 C19.8254054,5.34217507 19.8188458,5.34650286 19.8088041,5.3428377 L19.8145326,5.34855286 C19.7771515,5.37476806 19.739119,5.33501041 19.705265,5.34389376 L19.7063208,5.33134526 L19.6719051,5.32242049 C19.6650534,5.35455792 19.6341646,5.32832202 19.6171365,5.33399577 L19.5946494,5.306124 C19.6119472,5.27259919 19.6465201,5.30434319 19.6703326,5.2918361 C19.681138,5.3107831 19.6831823,5.31101088 19.698593,5.30005682 L19.7144305,5.28411234 C19.6272905,5.25182996 19.5231223,5.27920476 19.4440246,5.24213904 L19.4441369,5.24073095 L19.5939755,5.24021328 C19.5780032,5.23333852 19.5541908,5.24586632 19.545834,5.22213597 L19.5571336,5.21072635 L19.5427788,5.2091112 L19.5462608,5.21710414 L19.5372076,5.22621527 L19.5222911,5.20683342 C19.51982,5.21161676 19.5257506,5.21480565 19.5273906,5.22004455 C19.5154619,5.23899156 19.5079362,5.20519756 19.5038477,5.204742 L19.2944555,5.18123943 L19.1635994,5.16653739 L19.1701816,5.1622096 L19.1507272,5.14736261 C19.1540745,5.14115047 19.1577137,5.13661562 19.1615776,5.13344743 C19.1887148,5.11104234 19.2271292,5.15502424 19.2614551,5.13446208 C19.2895807,5.11990498 19.3219072,5.15392676 19.351493,5.12178933 C19.2863458,5.10938577 19.2174245,5.11686104 19.1598928,5.0876226 L19.2351491,5.0783044 L19.2280053,5.06484478 C19.3090575,5.03595837 19.3904017,5.05268971 19.4765083,5.06235993 L19.5000512,5.07766248 L19.4883022,5.09408322 L19.5411838,5.10507869 C19.5436549,5.10029535 19.5397685,5.09731353 19.5379264,5.09458019 L19.5902913,5.06246346 C19.297286,5.00769316 19.0078526,5.00259922 18.7288877,5.02715785 C18.7169366,5.02821391 17.8206006,5.0893827 17.5970782,5.12982369 C16.8755389,5.23406327 16.2895059,5.34766246 15.7727311,5.5100683 C15.8481896,5.47809653 18.948973,3.99844945 18.8796249,2.45419619 C18.8435468,1.65102961 18.173429,0.866582251 16.6090418,0.926280843 C14.9155508,0.990887018 13.7010268,2.08182028 13.6478756,2.15346687 C13.5642176,2.22051648 13.4574435,2.29390247 13.4600045,2.36544553 C13.466946,2.55907769 13.6383956,2.89416011 13.7245247,3.08172509 C13.8071943,3.26148349 13.8936155,3.24655366 13.9117444,3.23284556 C14.0196192,3.15163228 15.3686386,1.76734143 17.3355457,1.89686439 C17.4458243,1.90411188 18.0297232,1.97577918 18.0432918,2.2776681 C18.0718217,2.91331418 15.3089952,4.91337229 13.1102987,5.66255544 C13.0448594,5.68483629 13.032122,5.74403791 13.0173628,5.83473504 C13.0063551,5.90230233 12.9695806,6.16455785 13.0548337,6.42279619 C13.1343357,6.66353702 13.1627309,6.72275935 13.2795017,6.84563533 C13.3307659,6.89961876 13.4036409,6.93299862 13.4533101,6.9204294 C14.9494499,6.54194489 17.5308976,6.19918014 17.5308976,6.19918014 C17.5299316,6.19539074 17.5295722,6.19224325 17.5289881,6.188868 C17.5135774,6.09986885 17.6264618,6.157124 17.6568114,6.104383 C17.6761984,6.14457549 17.6873857,6.08504256 17.7138265,6.09052994 C17.737594,6.10330623 17.7603955,6.07802285 17.7814673,6.09810874 L17.7635406,6.13917094 L17.7829724,6.15401793 L17.6706721,6.17486999 L17.59591,6.18874375 C17.6940127,6.18557557 17.7971251,6.1702316 17.9002824,6.15432854 C17.9629585,6.14467903 18.0259716,6.16023007 18.0875919,6.15277551 C18.0953871,6.15822148 18.1028902,6.11061584 18.1111347,6.1128522 C18.1343855,6.11922999 18.1594785,6.14026841 18.1851779,6.13339366 C18.1959609,6.13049466 18.2068787,6.12728506 18.2179088,6.12430323 C18.2514035,6.09512692 18.3090475,6.12697445 18.3457995,6.10831735 C18.3976927,6.10653654 18.460863,6.09336682 18.5162606,6.07425416 C18.5667834,6.03938339 18.6349858,6.0647703 18.6791512,6.03172176 C18.5754548,6.00997929 18.4527758,6.04178541 18.3508765,6.04808037 L18.3728918,6.00749444 C18.3937164,6.0554314 18.4124744,6.00432625 18.4528432,6.01646062 L18.4984238,5.99117724 C18.4967839,5.98593834 18.4867422,5.98227318 18.4896401,5.97245801 C18.4959976,5.97063579 18.4990977,5.95833577 18.5070951,5.96177315 C18.5085104,5.96951761 18.5165077,5.97295499 18.5136098,5.98274945 L18.5090944,5.98732572 C18.5710517,5.96386457 18.657383,6.04449804 18.6863174,5.94640847 L18.7380308,5.92182914 C18.7018404,5.88482554 18.6504864,5.92971854 18.6191483,5.90847305 C18.5797904,5.90913568 18.5338055,5.93940947 18.5008499,5.91292508 C18.5457566,5.82171027 18.6307625,5.9427019 18.6832397,5.8599563 C18.7108936,5.8756937 18.7279667,5.84469516 18.7482746,5.84949921 L18.7501616,5.82690776 C18.7376489,5.82804665 18.722665,5.83396888 18.7112081,5.82253856 C18.7377163,5.80272185 18.7662013,5.80843702 18.7969329,5.8118951 C18.8068622,5.86620985 18.7500044,5.80410923 18.757867,5.8581962 C18.7851165,5.85807195 18.8139835,5.86012196 18.8432997,5.86157145 C18.8257324,5.87809573 18.8076485,5.89406091 18.7889804,5.90940487 C18.7767148,5.90418668 18.765123,5.90143264 18.7528125,5.91841246 L18.7519588,5.92845541 C18.755643,5.92787561 18.759754,5.9284347 18.7639998,5.92926299 C18.7570583,5.93462613 18.750229,5.94013422 18.7431976,5.94535241 C18.7613265,5.94702969 18.7795453,5.94974232 18.797809,5.95332465 C18.7941248,5.95394586 18.790216,5.95612011 18.7860825,5.95759031 L18.8093108,5.96022011 C18.8076485,5.95734183 18.8059412,5.95556102 18.8042114,5.95446354 C18.8045933,5.95454637 18.8049527,5.95458778 18.8053571,5.95467061 C18.8525102,5.96456861 18.8963835,5.9840747 18.9396053,6.00411918 C18.9773682,6.00836414 19.0151536,6.01194647 19.0529615,6.01532173 L19.0527368,6.01793082 C19.0653619,6.03163893 19.076729,6.02478488 19.0886801,6.01840709 C19.0966775,6.01904901 19.1046974,6.01983588 19.1126947,6.02045709 C19.2459545,6.00710101 19.3800006,5.98691158 19.514114,5.95765243 L19.4598621,5.93522664 C19.461502,5.93292815 19.4651413,5.93029834 19.4623556,5.92661248 L19.4105973,5.93882967 L19.4234021,5.95125394 L19.4010948,5.96502416 C19.3162237,5.97829742 19.2365868,5.99693382 19.1540295,5.97896005 L19.1601624,5.96769538 L19.0847488,5.96506558 C19.1398769,5.93787715 19.2088655,5.93945089 19.2727323,5.92537005 C19.2410797,5.90145334 19.2113591,5.93081602 19.1824023,5.92093873 C19.1418088,5.90464224 19.101777,5.95622364 19.0714723,5.91770842 L19.0897584,5.9045387 L19.0876917,5.90360688 C19.1138404,5.90097708 19.1418088,5.89439222 19.1668343,5.8914311 C19.1649922,5.89051999 19.1631052,5.89002302 19.1612631,5.88923615 L19.4182802,5.84904365 C19.4223238,5.84840173 19.4274233,5.82084057 19.44061,5.83525272 C19.4393519,5.83958051 19.4336909,5.84252091 19.4364765,5.84618607 L19.4499327,5.82968251 L19.4595476,5.83641232 L19.4566721,5.84303859 L19.4708248,5.84082293 L19.4588062,5.83239514 C19.4654333,5.81282692 19.4899646,5.82135825 19.5053528,5.81483551 L19.4023303,5.82117189 C19.4037905,5.82061279 19.4052283,5.82017795 19.406666,5.81953603 C19.4030492,5.81417288 19.3993201,5.8112946 19.3955236,5.80978298 C19.4615694,5.793238 19.5403077,5.7970274 19.6081057,5.7760511 C19.6119472,5.78197333 19.6152719,5.78826829 19.6176756,5.79512235 L19.6195626,5.77261372 C19.6203489,5.77232382 19.6211801,5.77215816 19.6219664,5.77188897 L19.6197648,5.77033594 L19.6206409,5.75996168 L19.654495,5.75830511 C19.6493057,5.76315057 19.6428809,5.76716775 19.6360966,5.7696526 C19.669389,5.77509857 19.699559,5.76420663 19.7299984,5.75463995 L19.7307398,5.75459854 C19.7307173,5.75453641 19.7307398,5.75447429 19.7307173,5.75441217 C19.7412532,5.75111974 19.751834,5.74797226 19.7625945,5.7457566 C19.754058,5.7477859 19.7424663,5.74967024 19.7301782,5.75035358 C19.7297963,5.7469162 19.7300658,5.74383084 19.7313014,5.74142882 C19.7279766,5.74544599 19.7219786,5.74751671 19.7174632,5.7504157 C19.7149247,5.75037429 19.7124536,5.75033287 19.7099376,5.75008439 C19.6952458,5.7405177 19.6801271,5.73339446 19.6647164,5.72805202 C19.6642222,5.7274101 19.6635707,5.72699596 19.6631214,5.72629192 C19.663391,5.72676818 19.6634135,5.72722374 19.6636381,5.7277 C19.6556183,5.72498737 19.647531,5.72268888 19.6393539,5.72086666 C19.6639976,5.71368129 19.6894499,5.70065652 19.7169016,5.71378483 L19.7116224,5.71871312 C19.7213271,5.71513079 19.7281563,5.71819544 19.7366255,5.71892019 L19.7299086,5.70556411 C19.7614488,5.6965151 19.786362,5.70703431 19.8108035,5.68262063 C19.8220582,5.68703124 19.8243496,5.69902066 19.8194523,5.70597825 L19.8538006,5.7005944 C19.8167566,5.64870239 19.8981457,5.70394895 19.8988421,5.67502112 C19.8697729,5.67543526 19.8363007,5.67448274 19.8255177,5.66176857 L19.8282135,5.67576658 Z" id="Fill-37" fill="#FFFFFF"></path>
                <path d="M20.0460083,4.97065705 C20.0620421,4.90677705 20.0260308,4.91103056 20.0042431,4.87947724 C19.9860112,4.88628286 19.9642235,4.85472954 19.95,4.89045903 C19.9699128,4.95016286 19.9975839,4.98248954 20.0460083,4.97065705" id="Fill-39" fill="#FFFFFF"></path>
                <path d="M19.9838,5.92428815 C19.994,5.92548815 20.005,5.92548815 20.0162,5.92438815 C20.0066,5.92028815 19.996,5.91938815 19.9838,5.92428815" id="Fill-41" fill="#FFFFFF"></path>
                <path d="M20.032,5.90772692 L19.9682,5.89992692 C19.9739,5.91972692 19.9728,5.93452692 19.968,5.94622692 C19.9841,5.92372692 20.011,5.91202692 20.032,5.90772692" id="Fill-43" fill="#FFFFFF"></path>
                <polygon id="Fill-45" fill="#FFFFFF" points="19.95 5.91532692 19.95 5.91532692 20.05 5.93082692"></polygon>
                <path d="M20.05,4.90798345 C20.0218364,4.90348345 19.9746914,4.85938345 19.95,4.91668345 C19.9753086,4.96958345 20.0315586,4.97848345 20.05,4.90798345" id="Fill-47" fill="#FFFFFF"></path>
                <path d="M19.9959855,4.87307692 C20.0031855,4.89020624 19.9748855,4.89616426 19.9648855,4.90361179 L20.0029855,4.97307692 C20.0330855,4.95066663 20.0598855,4.8783579 19.9959855,4.87307692" id="Fill-49" fill="#FFFFFF"></path>
                <polygon id="Fill-51" fill="#FFFFFF" points="19.9579058 4.87307692 19.95 4.97307692 20.05 4.88405052"></polygon>
                <path d="M20.0483491,4.95847692 L20.05,4.89797692 C20.0147348,4.88567692 19.9845627,4.92417692 19.95,4.88767692 C19.9675623,4.95507692 20.0166315,4.93537692 20.0483491,4.95847692" id="Fill-53" fill="#FFFFFF"></path>
                <path d="M20.0497111,4.95859707 C20.055292,4.86159707 19.9784995,4.88569707 19.95,4.90559707 C19.9532741,4.96719707 20.0164493,4.94089707 20.0497111,4.95859707" id="Fill-55" fill="#FFFFFF"></path>
                <path d="M19.8695237,4.88453261 L19.8400769,4.8947548 L19.845452,4.90907624 C19.9427506,4.96361187 20.0548886,4.97819276 20.1599231,4.97160282 C20.1017041,4.90969891 20.0495136,4.96387132 19.9987774,4.91058103 L19.998377,4.92313824 C19.9560301,4.97393784 19.9099734,4.83321412 19.8695237,4.88453261" id="Fill-57" fill="#FFFFFF"></path>
                <path d="M19.95,4.88913607 L19.9562873,4.97307692 L20.0491273,4.95825387 C20.0588814,4.87710822 19.9843743,4.85364544 19.95,4.88913607" id="Fill-59" fill="#FFFFFF"></path>
                <path d="M19.95,4.94779357 C19.9882293,4.90499357 20.0173516,4.96789357 20.05,4.97129357 C20.0203957,4.93279357 19.976484,4.78929357 19.95,4.94779357" id="Fill-61" fill="#FFFFFF"></path>
                <path d="M20.0603796,4.91492202 C20.0201827,4.90163161 19.9813771,4.85642922 19.9396204,4.87955602 C19.9584436,4.89280888 19.9760864,4.93339343 19.9685613,4.97307692 C19.985382,4.89862813 20.0355701,4.90493544 20.0603796,4.91492202" id="Fill-63" fill="#FFFFFF"></path>
                <path d="M20.03135,4.90018881 L19.96865,4.91088881 C20.00375,4.91848881 20.02425,4.99208881 20.03135,4.90018881" id="Fill-65" fill="#FFFFFF"></path>
                <path d="M19.9780443,4.88908588 L19.962914,4.89996242 C19.96651,4.90276587 19.9760541,4.91104974 19.9800572,4.91509683 L19.9599964,4.93086359 C19.9687264,4.93676559 19.9873397,4.95398678 20.0086669,4.96106918 L19.9615344,4.96402018 C19.9822962,4.99416253 20.0172159,4.97280994 20.0484492,4.96218634 C20.0457352,4.96191232 20.0429986,4.96157506 20.0402847,4.96132212 C20.0425915,4.96052113 20.0449436,4.96007848 20.0472279,4.95883485 C20.0636474,4.91170318 20.0022665,4.94854851 19.9903703,4.91627723 L20.016447,4.90634922 C19.9827712,4.91349485 19.9889454,4.84229146 19.95,4.87557452 C19.9603131,4.87675492 19.9731366,4.87304509 19.9780443,4.88908588" id="Fill-67" fill="#FFFFFF"></path>
                <path d="M20.0016089,4.92604571 L20.0032089,4.92474571 C19.9963089,4.91904571 19.9938089,4.91764571 20.0016089,4.92604571" id="Fill-69" fill="#FFFFFF"></path>
                <path d="M19.9768,4.93247692 C19.9908,4.92937692 20.0058,4.92407692 20.0232,4.91367692 L19.9768,4.93247692 Z" id="Fill-71" fill="#FFFFFF"></path>
                <path d="M20.0387178,4.95740124 C20.0616178,4.91709832 20.0062178,4.83642345 19.9632178,4.891978 C19.9695178,4.91778843 19.9374178,4.95733223 19.9730178,4.96871919 C20.0004178,4.97106559 20.0268178,4.98176243 20.0387178,4.95740124" id="Fill-73" fill="#FFFFFF"></path>
                <path d="M19.9893107,4.96868448 L20.0349107,4.97307692 C19.9912107,4.94927789 20.0563107,4.84809209 19.9704107,4.87883916 C19.9767107,4.9087876 19.9446107,4.95454882 19.9893107,4.96868448" id="Fill-75" fill="#FFFFFF"></path>
                <path d="M19.9544,4.94782692 L20.0456,4.95892692 C20.0211,4.91922692 19.9946,4.90382692 19.9591,4.88722692 L19.9544,4.94782692 Z" id="Fill-77" fill="#FFFFFF"></path>
                <path d="M19.9775769,4.91369222 C19.9665769,4.93679222 19.9838769,4.95119222 19.9920769,4.96439222 L20.0193769,4.96769222 L20.0259769,4.88289222 C20.0087769,4.86859222 19.9976769,4.89159222 19.9775769,4.91369222" id="Fill-79" fill="#FFFFFF"></path>
                <polygon id="Fill-81" fill="#FFFFFF" points="19.9680593 4.91202692 19.95 4.93412692 20.05 4.92312692"></polygon>
                <path d="M19.9307675,5.89068079 L20.0692325,5.97068079 C20.023471,5.91978079 19.9742525,5.84248079 19.9307675,5.89068079" id="Fill-83" fill="#FFFFFF"></path>
                <path d="M19.9117651,5.87872438 C19.9117019,5.92257685 19.9508448,5.89637267 19.9748955,5.89882931 L19.9214191,5.91099957 L19.9795538,5.89976114 C19.990599,5.90323432 19.9968383,5.91574343 19.9911049,5.95039056 L19.9901142,5.96750234 C19.9968172,5.98585656 20.0064712,5.95290367 20.0141859,5.95414611 L20.0055437,5.93548128 C20.0146286,5.91277852 20.0275076,5.92523115 20.0396277,5.91687292 L20.0361919,5.90939005 L20.0602426,5.89603382 C20.0544038,5.89258887 20.0485229,5.88990633 20.0426209,5.88759088 L20.0851574,5.87940207 L20.0882349,5.87307692 L20.034864,5.88519071 C19.9938451,5.87251218 19.9517512,5.88239522 19.9117651,5.87872438" id="Fill-85" fill="#FFFFFF"></path>
                <polygon id="Fill-87" fill="#FFFFFF" points="19.9681329 5.91202692 19.95 5.93412692 20.05 5.92312692"></polygon>
                <polygon id="Fill-89" fill="#FFFFFF" points="20.0846199 5.97197692 20.081163 5.94547692 19.9153801 5.87417692"></polygon>
                <path d="M19.9485367,5.97307692 L20.0514633,5.97141892 C20.01837,5.97668551 19.969805,5.74641852 19.9485367,5.97307692" id="Fill-91" fill="#FFFFFF"></path>
                <path d="M20.0531812,5.8980383 C20.0572283,5.89308166 20.0591675,5.88312072 20.0560057,5.87697258 C20.0530126,5.87046699 20.0477008,5.87382702 20.0419885,5.8749232 C20.0347796,5.87868834 20.0422625,5.88910205 20.0414615,5.89639403 C20.0416723,5.89667999 20.0418831,5.89675148 20.0420939,5.89701361 C20.0279923,5.8958936 20.0138065,5.89529785 19.9998103,5.89525019 C19.9995574,5.89215229 19.9985877,5.88841098 19.996501,5.88364498 C19.9739258,5.87366021 19.9516668,5.88714799 19.9356893,5.89996853 C19.9329912,5.90044513 19.9301246,5.90077875 19.9275108,5.90132684 C19.9259721,5.90556858 19.9245177,5.90857116 19.9231265,5.91062054 C19.9215245,5.91205034 19.9202809,5.91309886 19.9190162,5.91414738 C19.9114911,5.91600612 19.9050621,5.89391571 19.8947969,5.89682297 L19.8932371,5.91991424 C19.907697,5.92432279 19.9220515,5.92649132 19.9363849,5.92775431 L19.9371016,5.92825474 C19.9336658,5.93218669 19.9253608,5.94040804 19.9222201,5.94321998 L19.9369329,5.95198942 C19.9334128,5.96688317 19.9213137,5.96445251 19.9118494,5.96626359 C19.9500438,5.99362043 19.9397364,5.9294939 19.9713542,5.93349734 L19.954934,5.92880283 C20.0040892,5.9297322 20.0534131,5.9190087 20.1067629,5.92017637 L20.1038962,5.9051873 C20.0878976,5.90213706 20.0707186,5.89975406 20.0531812,5.8980383" id="Fill-93" fill="#FFFFFF"></path>
                <polygon id="Fill-95" fill="#FFFFFF" points="19.96805 5.93622692 20.03195 5.94402692 19.98915 5.90212692"></polygon>
                <path d="M20.03555,5.93189435 L19.96445,5.90599435 C19.98565,5.94739435 20.01025,5.94449435 20.03555,5.93189435" id="Fill-97" fill="#FFFFFF"></path>
                <path d="M20.02705,5.89172692 C20.00515,5.89472692 19.98195,5.91372692 19.95935,5.92502692 L20.04065,5.95442692 L20.02705,5.89172692 Z" id="Fill-99" fill="#FFFFFF"></path>
                <path d="M18.9488318,5.92243086 C18.978405,6.01293086 19.0165361,5.93703086 19.0511682,5.95713086 C19.031797,5.83583086 18.9805972,5.87963086 18.9488318,5.92243086" id="Fill-101" fill="#FFFFFF"></path>
                <path d="M19.035,5.92391903 L18.965,5.91541903 C18.99,5.93611903 19.0132,5.93251903 19.035,5.92391903" id="Fill-103" fill="#FFFFFF"></path>
                <path d="M19.05,5.88206112 L18.95,5.89056112 C18.9793109,6.06146112 19.016777,5.88076112 19.05,5.88206112" id="Fill-105" fill="#FFFFFF"></path>
                <path d="M17.95,5.94641233 L18.05,5.90871233 C18.0136115,5.90191233 17.9737346,5.87991233 17.95,5.94641233" id="Fill-107" fill="#FFFFFF"></path>
                <path d="M18.03965,5.91196105 L17.96035,5.93246105 C17.98995,5.93626105 18.01805,5.93556105 18.03965,5.91196105" id="Fill-109" fill="#FFFFFF"></path>
                <path d="M17.96735,5.92542751 L18.03265,5.92612751 C18.01135,5.91702751 17.98925,5.91922751 17.96735,5.92542751" id="Fill-111" fill="#FFFFFF"></path>
                <path d="M17.95,5.90576855 C17.9727653,5.97306855 18.0109003,5.92446855 18.05,5.90756855 L17.95,5.90576855 Z" id="Fill-113" fill="#FFFFFF"></path>
                <path d="M9.02283487,6.40165354 C9.05436444,6.16156894 9.37408014,4.31654289 10.4169918,3.20597325 L10.4805617,3.3136635 C10.4977114,3.34271534 10.5247424,3.36238052 10.5551522,3.36793225 C10.5917697,3.3745765 10.628898,3.36010632 10.654102,3.32922619 C10.7138215,3.25613952 11.0163875,2.87492049 11.3261041,2.87492049 C11.6144081,2.87492049 11.9522754,3.07353431 12.1105323,3.427396 C12.2012117,3.6301346 12.2309339,3.83160232 12.2309339,4.00591337 C12.2309339,5.42305463 10.8741803,7.75513938 9.5093135,7.75513938 C9.33090133,7.75513938 8.87632552,7.51775261 9.02283487,6.40165354 M9.45855188,8.92307692 C11.3734869,8.92307692 13,6.13302991 13,4.27538425 C13,2.50431442 11.8792368,2.1540647 11.7290343,2.09761093 C11.5933295,2.04659742 11.6989781,2.00336524 11.5378532,1.97018862 C11.3561407,1.93275344 11.1907529,1.92307692 11.0429077,1.92307692 C9.29835025,1.92307692 8,5.05800029 8,6.99238918 C8,7.6786191 8.34629483,8.92307692 9.45855188,8.92307692" id="Fill-115" fill="#FFFFFF"></path>
                <path d="M19.95,7.89008601 C19.9693665,7.94957284 19.9967586,7.98203518 20.045611,7.9709123 C20.0625929,7.90788263 20.0263027,7.91159025 20.0047844,7.87995183 C19.9862903,7.88637839 19.964772,7.85482236 19.95,7.89008601" id="Fill-117" fill="#FFFFFF"></path>
                <path d="M19.95,7.91647554 C19.9746037,7.96607554 20.0307719,7.97507554 20.05,7.90987554 C20.0219504,7.90527554 19.9753618,7.86357554 19.95,7.91647554" id="Fill-119" fill="#FFFFFF"></path>
                <path d="M19.9607769,7.90342627 L20.0016769,7.97307692 C20.0359769,7.95095174 20.0676769,7.87882656 19.9963769,7.87307692 C20.0040769,7.89025305 19.9722769,7.89600269 19.9607769,7.90342627" id="Fill-121" fill="#FFFFFF"></path>
                <polygon id="Fill-123" fill="#FFFFFF" points="20.9592799 7.87307692 20.95 7.97307692 21.05 7.88515508"></polygon>
                <path d="M20.0480207,7.95752692 L20.05,7.90122692 C20.0147817,7.88872692 19.9844015,7.92352692 19.95,7.88862692 C19.9672165,7.95162692 20.0164153,7.93482692 20.0480207,7.95752692" id="Fill-125" fill="#FFFFFF"></path>
                <path d="M19.95,7.9056592 C19.9526066,7.9630592 20.0164345,7.9395592 20.0495849,7.9564592 C20.0563352,7.8662592 19.9789398,7.8876592 19.95,7.9056592" id="Fill-127" fill="#FFFFFF"></path>
                <path d="M19.9987774,7.91117454 L19.9982505,7.92297424 C19.9505075,7.96928545 19.8999611,7.83630388 19.8543893,7.88329383 L19.8213802,7.89206529 L19.8273033,7.90564017 C19.9357525,7.95931313 20.0610857,7.97596846 20.1786198,7.97267917 C20.1139086,7.91315856 20.0551626,7.9624458 19.9987774,7.91117454" id="Fill-129" fill="#FFFFFF"></path>
                <path d="M19.95,7.88854742 L19.9554952,7.97307692 L20.0489665,7.95979764 C20.0596399,7.8783819 19.9849262,7.8534718 19.95,7.88854742" id="Fill-131" fill="#FFFFFF"></path>
                <path d="M20.05,8.96949678 C20.0205175,8.93219678 19.9771221,8.79679678 19.95,8.94319678 C19.9884249,8.90499678 20.01734,8.96479678 20.05,8.96949678" id="Fill-133" fill="#FFFFFF"></path>
                <path d="M21.03515,8.90186533 L20.96485,8.91116533 C21.00395,8.91856533 21.02565,8.98726533 21.03515,8.90186533" id="Fill-135" fill="#FFFFFF"></path>
                <path d="M20.97385,8.93162692 C20.98955,8.92892692 21.00645,8.92412692 21.02615,8.91452692 L20.97385,8.93162692 Z" id="Fill-137" fill="#FFFFFF"></path>
                <path d="M20.0017426,8.92582706 L20.0035426,8.92472706 C19.9958426,8.91932706 19.9932426,8.91802706 20.0017426,8.92582706" id="Fill-139" fill="#FFFFFF"></path>
                <path d="M19.9774678,8.89602747 L19.9614903,8.90694817 C19.9652001,8.90983419 19.9750016,8.9183999 19.9791119,8.92253268 L19.9579491,8.93839425 C19.9721771,8.94802201 20.0116994,8.987041 20.0484183,8.96783165 C20.066335,8.92001607 20.0017082,8.95691095 19.989862,8.92384871 L20.0172009,8.91403624 C19.9819786,8.9209396 19.9896091,8.84846587 19.9484637,8.88196678 C19.9591927,8.88325972 19.9726197,8.87963488 19.9774678,8.89602747" id="Fill-141" fill="#FFFFFF"></path>
                <path d="M20.9691,8.96848036 C20.9997,8.97092688 21.029,8.98189913 21.0429,8.95765638 C21.0696,8.91754836 21.0095,8.83659094 20.96,8.8916746 C20.9664,8.91754836 20.9296,8.95676674 20.9691,8.96848036" id="Fill-143" fill="#FFFFFF"></path>
                <path d="M20.9877778,8.96828267 L21.0386778,8.97307692 C20.9902778,8.94893445 21.0651778,8.84876887 20.9684778,8.87856171 C20.9748778,8.90844016 20.9380778,8.9537287 20.9877778,8.96828267" id="Fill-145" fill="#FFFFFF"></path>
                <path d="M19.9561825,8.88922692 L19.95,8.94552692 L20.05,8.95692692 C20.0236997,8.91972692 19.994946,8.90502692 19.9561825,8.88922692" id="Fill-147" fill="#FFFFFF"></path>
                <path d="M19.9747645,8.91389613 C19.9620645,8.93529613 19.9811645,8.94879613 19.9901645,8.96129613 L20.0206645,8.96459613 L20.0294645,8.88579613 C20.0102645,8.87229613 19.9976645,8.89359613 19.9747645,8.91389613" id="Fill-149" fill="#FFFFFF"></path>
                <polygon id="Fill-151" fill="#FFFFFF" points="19.9683494 8.91297692 19.95 8.93317692 20.05 8.92427692"></polygon>
                <g id="Group-155" transform="translate(21.000000, 8.923077)">
                    <mask id="mask-2" fill="white">
                        <use xlink:href="#path-1"></use>
                    </mask>
                    <g id="Clip-154"></g>
                    <path d="M0.0369444444,0.1864 L0.444444444,0.39015 C0.31,0.2659 0.165611111,0.0799 0.0369444444,0.1864" id="Fill-153" fill="#FFFFFF" mask="url(#mask-2)"></path>
                </g>
                <path d="M20.9244439,8.9030169 L21.0747551,8.97307692 L21.0755561,8.94321528 C21.0288249,8.90124994 20.9480308,8.83348697 20.9244439,8.9030169" id="Fill-156" fill="#FFFFFF"></path>
                <path d="M20.059624,8.91506177 L20.0558721,8.9071916 L20.0829369,8.8936092 C20.0287018,8.86282665 19.9710308,8.87850354 19.9170631,8.87307692 C19.916079,8.94527309 20.0262567,8.83708991 20.0049252,8.94930339 L20.0035972,8.96716995 C20.0108693,8.98646458 20.0221042,8.95219123 20.0306832,8.95361929 L20.0212821,8.93394385 C20.031716,8.91036506 20.0459441,8.92363011 20.059624,8.91506177" id="Fill-158" fill="#FFFFFF"></path>
                <polygon id="Fill-160" fill="#FFFFFF" points="19.9683494 8.91297692 19.95 8.93317692 20.05 8.92427692"></polygon>
                <polygon id="Fill-162" fill="#FFFFFF" points="21.0907116 8.94812692 20.9055153 8.87322692 21.0944847 8.97292692"></polygon>
                <path d="M20.9424344,8.968165 L21.0575656,8.971865 C21.0205305,8.975065 20.9670331,8.753165 20.9424344,8.968165" id="Fill-164" fill="#FFFFFF"></path>
                <path d="M19.9191953,8.88886462 C19.9052835,8.98763984 19.8982432,8.86298765 19.8826872,8.87413231 L19.8805794,8.94290856 C19.9589706,9.00931848 20.0348956,8.94420622 20.1194206,8.95206855 L20.1164485,8.9074136 C20.0544354,8.87375064 19.9766133,8.85978166 19.9191953,8.88886462" id="Fill-166" fill="#FFFFFF"></path>
                <polygon id="Fill-168" fill="#FFFFFF" points="19.96435 8.93482692 20.03565 8.94282692 19.98845 8.90332692"></polygon>
                <path d="M20.03955,8.93177942 L19.96045,8.90697942 C19.98345,8.94577942 20.01095,8.94317942 20.03955,8.93177942" id="Fill-170" fill="#FFFFFF"></path>
                <path d="M19.9548,8.92407692 L20.0452,8.95237692 L20.031,8.89377692 C20.0065,8.89637692 19.9802,8.91377692 19.9548,8.92407692" id="Fill-172" fill="#FFFFFF"></path>
                <polygon id="Fill-174" fill="#FFFFFF" points="19.95 8.93827692 20.05 8.91577692 19.9824811 8.90787692"></polygon>
                <path d="M19.9512913,8.90107692 L19.95,8.92367692 L20.05,8.94507692 C20.0315083,8.89557692 19.9822314,8.91917692 19.9512913,8.90107692" id="Fill-176" fill="#FFFFFF"></path>
                <path d="M19.9428349,8.91997562 C19.9756121,9.00567562 20.018507,8.93717562 20.0571651,8.95757562 C20.0359179,8.84367562 19.9784999,8.88187562 19.9428349,8.91997562" id="Fill-178" fill="#FFFFFF"></path>
                <path d="M19.9301035,8.94918686 C19.9676866,9.0078042 20.0237555,8.94247495 20.0698965,8.92350262 C20.0223644,8.8295359 19.9644194,8.88385762 19.9301035,8.94918686" id="Fill-180" fill="#FFFFFF"></path>
                <path d="M19.941781,8.9387468 L19.937481,8.93696449 C19.9742842,9.01724941 20.0220271,8.94530893 20.062519,8.89799673 C20.0249359,8.84501354 19.988997,8.88503448 19.941781,8.9387468" id="Fill-182" fill="#FFFFFF"></path>
                <path d="M20.05,8.91500219 C20.0145525,8.89754914 19.9853418,8.82874088 19.9517618,8.91739619 L19.95,8.95222506 C19.9831924,8.94264906 20.0334743,9.0254352 20.05,8.91500219" id="Fill-184" fill="#FFFFFF"></path>
                <path d="M19.95,8.92644008 L20.05,8.93924008 C20.0210572,8.88454008 19.9876083,8.91284008 19.95,8.92644008" id="Fill-186" fill="#FFFFFF"></path>
                <path d="M20.03905,8.92444658 L19.96095,8.91574658 C19.98855,8.93524658 20.01455,8.93214658 20.03905,8.92444658" id="Fill-188" fill="#FFFFFF"></path>
                <path d="M19.95,8.91649927 C19.9842385,9.00389927 20.0147383,8.90869927 20.05,8.89319927 L19.9509839,8.89389927 L19.95,8.91649927 Z" id="Fill-190" fill="#FFFFFF"></path>
                <path d="M20.05,8.886195 L19.95,8.890395 C19.97851,9.050495 20.0167832,8.883895 20.05,8.886195" id="Fill-192" fill="#FFFFFF"></path>
                <path d="M19.9819,8.92390448 C19.9933,8.92530448 20.0056,8.92540448 20.0181,8.92450448 C20.0075,8.92050448 19.9957,8.91960448 19.9819,8.92390448" id="Fill-194" fill="#FFFFFF"></path>
                <path d="M19.95,8.91517692 L20.05,8.93097692 L19.95,8.91517692 Z" id="Fill-196" fill="#FFFFFF"></path>
                <path d="M19.9638,8.94462692 C19.9822,8.92382692 20.0126,8.91322692 20.0362,8.90942692 L19.9649,8.90152692 C19.9709,8.92012692 19.9695,8.93382692 19.9638,8.94462692" id="Fill-198" fill="#FFFFFF"></path>
                <g id="Group-202" transform="translate(4.000000, 7.923077)">
                    <mask id="mask-4" fill="white">
                        <use xlink:href="#path-3"></use>
                    </mask>
                    <g id="Clip-201"></g>
                    <path d="M16.7581701,0.566311688 C16.753741,0.543411255 16.7800769,0.530424242 16.7684613,0.509363636 L16.8074332,0.501354978 C16.7949709,0.4925671 16.8140335,0.482329004 16.8165086,0.480142857 C16.712598,0.467025974 16.6348061,0.469060606 16.5518904,0.467004329 C16.5792685,0.468714286 16.6085354,0.4784329 16.6337857,0.472220779 L16.6437512,0.483194805 C16.637976,0.494883117 16.6299428,0.486593074 16.620824,0.488064935 L16.6584281,0.492220779 L16.654824,0.484428571 C16.6785545,0.472242424 16.7294243,0.477891775 16.7615137,0.491311688 C16.7559556,0.497805195 16.7485303,0.500186147 16.7414958,0.500683983 C16.7481395,0.503151515 16.7526337,0.511354978 16.7587997,0.515683983 C16.754414,0.534948052 16.7353298,0.525424242 16.7231714,0.533952381 C16.7390858,0.535727273 16.7392812,0.549969697 16.7416478,0.561376623 C16.7393464,0.560445887 16.7369364,0.559623377 16.7348521,0.558367965 C16.7234102,0.580077922 16.704543,0.568844156 16.6994626,0.554515152 L16.5924907,0.549796537 C16.5670015,0.576874459 16.5426631,0.535207792 16.5185852,0.530316017 C16.5042774,0.537935065 16.4873425,0.529233766 16.4693872,0.529580087 L16.4618534,0.517264069 L16.4783757,0.509904762 L16.4397295,0.514883117 C16.4443974,0.51308658 16.4458521,0.520121212 16.449999,0.52287013 C16.4307627,0.534558442 16.4069453,0.527372294 16.3845609,0.527242424 C16.3972838,0.494212121 16.3427883,0.520424242 16.3345814,0.494298701 L16.3858202,0.476917749 C16.1802135,0.433974026 15.9771254,0.467025974 15.7819185,0.450445887 C15.7768381,0.436116883 15.7605762,0.441246753 15.7624,0.425380952 C15.782939,0.402372294 15.8154843,0.431138528 15.8265571,0.432350649 C15.8251024,0.425294372 15.8344817,0.421722944 15.8394319,0.41765368 C16.0503579,0.433649351 16.2902902,0.411484848 16.5057755,0.446311688 C16.507469,0.451095238 16.502801,0.45287013 16.5000654,0.457177489 L16.5221893,0.459558442 C16.5155456,0.458844156 16.5089236,0.45812987 16.5052761,0.450857143 C16.5184332,0.440770563 16.5336746,0.4384329 16.5496324,0.438930736 C16.5052978,0.43761039 16.4594434,0.435186147 16.4070105,0.428735931 C16.3959594,0.42752381 16.3847563,0.40795671 16.3990641,0.400316017 C16.4678891,0.405489177 16.5756427,0.403411255 16.6655494,0.420034632 C16.6754498,0.411939394 16.6725622,0.397848485 16.6841561,0.394515152 C16.6919722,0.404536797 16.704847,0.428887446 16.7243655,0.414926407 C16.7415175,0.382372294 16.6803783,0.407891775 16.6699568,0.381506494 C16.6811382,0.362047619 16.7019594,0.375792208 16.7199147,0.375445887 L16.7204358,0.370922078 L16.6725405,0.358844156 L16.6730616,0.354298701 C16.7461854,0.341571429 16.840022,0.36321645 16.902225,0.367675325 L16.9004013,0.383541126 C16.9110616,0.368627706 16.9472327,0.365662338 16.9787142,0.364493506 C16.975718,0.332047619 16.8919556,0.398692641 16.927953,0.33834632 L16.8903489,0.334255411 C16.896211,0.341787879 16.8946695,0.355380952 16.8828151,0.360987013 C16.8544383,0.334969697 16.8282978,0.348194805 16.7934294,0.339818182 L16.7996605,0.324428571 C16.7905418,0.325727273 16.7833987,0.329558442 16.7725865,0.326073593 L16.7787091,0.331333333 C16.7592123,0.342415584 16.7397372,0.339709957 16.7206963,0.334818182 C16.7425596,0.299363636 16.7970117,0.302848485 16.8244766,0.308281385 C16.7783183,0.300705628 16.7340488,0.276051948 16.6856976,0.28795671 C16.7059326,0.294818182 16.7244089,0.314536797 16.7191765,0.334471861 C16.6990066,0.329147186 16.6793361,0.321614719 16.6606861,0.325424242 L16.6619888,0.314103896 L16.6249057,0.305467532 C16.6171114,0.334471861 16.584045,0.310229437 16.5655686,0.315121212 L16.5415992,0.289580087 C16.5607269,0.259515152 16.5977014,0.288757576 16.6235814,0.277805195 C16.635045,0.295121212 16.6372595,0.295337662 16.6540424,0.285683983 L16.6713246,0.271506494 C16.5763157,0.240554113 16.4615711,0.264818182 16.376202,0.228021645 L16.5417078,0.229904762 C16.5245341,0.223454545 16.4986324,0.234428571 16.4899045,0.21282684 L16.5022582,0.202675325 L16.486778,0.201008658 L16.4904255,0.208281385 L16.4805469,0.216398268 L16.4646542,0.198606061 C16.4619185,0.202891775 16.4683017,0.205900433 16.4699951,0.210662338 C16.4568598,0.22761039 16.4491739,0.196939394 16.4447448,0.196441558 L16.0775188,0.156636364 L16.0846835,0.152805195 L16.0638623,0.139103896 C16.0936286,0.0941471861 16.1410245,0.149753247 16.1836874,0.129147186 C16.214257,0.116398268 16.2487563,0.14765368 16.2811497,0.119060606 C16.21087,0.106831169 16.1363132,0.11252381 16.0745009,0.0851645022 L16.1559402,0.0779350649 L16.1483847,0.0656406926 C16.2363374,0.0407705628 16.3240513,0.0571558442 16.4169543,0.0672207792 L16.4422046,0.0814415584 L16.4293298,0.0960952381 L16.4863438,0.106852814 C16.4890577,0.1025671 16.4849109,0.0998398268 16.4829568,0.0973290043 L16.5399275,0.0690822511 C16.2104358,0.0127186147 14.3061318,0.00598701299 13.8500411,0.0261601732 C13.6913745,0.0296450216 13.5336197,0.0359004329 13.3781229,0.049038961 C12.0947857,0.116506494 10.6326771,0.398497835 9.42952005,0.659645022 C8.85429911,0.784471861 8.25788787,0.910121212 7.66223653,1.07994805 C7.66110754,1.08118182 7.65982656,1.08226407 7.65867586,1.08347619 C7.61282146,1.09782684 7.56844342,1.11717749 7.52840766,1.13758874 C7.49317011,1.11949351 7.46681252,1.20590043 7.46292618,1.13884416 L7.4652493,1.13657143 L7.46863627,1.1332381 C7.3624894,1.14685281 7.25862222,1.20748052 7.15903218,1.21981818 L7.15918416,1.19719913 C7.11943065,1.20258874 7.0788304,1.20358442 7.0528636,1.2334329 C7.06430549,1.24674459 7.09174866,1.22044589 7.09396322,1.24665801 C7.09400664,1.24722078 7.09420204,1.24748052 7.09422375,1.24808658 C7.07299004,1.25507792 7.0505622,1.26048918 7.02859029,1.26644156 C7.01597599,1.27025108 7.00340511,1.27414719 6.9907908,1.27797835 C6.95924419,1.28921212 6.93130166,1.30477489 6.91338978,1.33254545 C6.84573716,1.30421212 6.80077292,1.36388745 6.73965543,1.35531602 C6.73392363,1.35451515 6.72812669,1.35334632 6.72209093,1.35122511 L6.73131826,1.3404026 C6.70496066,1.36631169 6.64768608,1.37038095 6.60313436,1.39815152 C6.58971673,1.4064632 6.57734125,1.41672294 6.56746258,1.43064069 C6.51661456,1.46072727 6.45046003,1.43503463 6.40870907,1.47693939 C6.4047576,1.46932035 6.40508327,1.4641039 6.40788404,1.46012121 C6.41787126,1.44594372 6.4610986,1.448671 6.46843704,1.42254545 C6.39279464,1.44518615 6.31741277,1.47758874 6.24387637,1.51293506 C6.19454815,1.53665801 6.14604496,1.56167965 6.09893129,1.58616017 C6.09185338,1.56890909 6.08147535,1.56657143 6.06985977,1.56968831 C6.06810115,1.57027273 6.06634253,1.5708355 6.06460562,1.57141991 C6.04929911,1.57730736 6.03240766,1.59001299 6.0181433,1.59038095 C5.98846386,1.59947186 5.95902324,1.60947186 5.92958263,1.61945022 L5.92960434,1.61942857 C5.92765032,1.61906061 5.9256963,1.61856277 5.92374227,1.61812987 C5.9232212,1.6182381 5.92272184,1.61836797 5.92217905,1.61845455 C3.53814074,2.40951515 1.4978802,3.28600866 1.24865543,3.41135498 C1.0367742,3.51780519 0.815383397,3.6121342 0.5964894,3.70940693 C0.451131801,3.77401732 0.298392337,3.82873593 0.156899361,3.89817316 C0.0588508301,3.94629004 -0.0114722861,4.00860606 0.0181420179,4.1432381 C0.0535315453,4.3038658 0.196869987,4.41416883 0.282173946,4.54927706 C0.359075607,4.67098701 0.494511111,4.77908225 0.622629885,4.87157143 C0.710864879,4.93522944 0.831428097,4.98419048 0.936228863,4.99812987 C1.01918799,5.00921212 1.11002835,4.96903896 1.18011264,4.93061905 C1.42037063,4.79899567 1.6617576,4.6688658 1.90579336,4.54191775 C3.25589298,3.83958009 4.64487765,3.22834632 6.07643831,2.72722078 C6.07930421,2.7275671 6.08223525,2.72769697 6.08507944,2.72808658 C6.10118927,2.72222078 6.11723397,2.71592208 6.13323525,2.70882251 C6.13301814,2.70854113 6.132953,2.70821645 6.13277931,2.70789177 C6.14641405,2.70317316 6.16011392,2.69858442 6.17377037,2.69384416 L6.17444342,2.69841126 C6.23200026,2.67665801 6.30091213,2.67120346 6.34963244,2.63501299 C6.34112158,2.63849784 6.33328378,2.64637662 6.3241433,2.64542424 C6.32310115,2.64464502 6.32208072,2.64397403 6.3211037,2.64334632 C6.34251111,2.63607359 6.36383167,2.62858442 6.38523908,2.62133333 C6.41300792,2.62077056 6.44012542,2.62120346 6.46852388,2.60219913 C6.46808966,2.59916883 6.46724291,2.59622511 6.46700409,2.59360606 C6.47073844,2.59237229 6.4744728,2.59120346 6.47820715,2.58994805 C6.51155581,2.60196104 6.56850473,2.5651645 6.60869246,2.54728571 C6.61305645,2.54585714 6.61744215,2.54442857 6.62182784,2.54297835 L6.6232825,2.55295671 C6.67688787,2.55390909 6.70919438,2.52639827 6.74425824,2.50297835 C6.77673844,2.49245887 6.80904496,2.48152814 6.84156858,2.47116017 C6.84358774,2.47124675 6.84545492,2.47113853 6.8475175,2.47129004 L6.85667969,2.48789177 C6.93438467,2.46548918 7.00416501,2.41955844 7.08977292,2.42066234 C7.09632976,2.38832468 7.13471545,2.38949351 7.16524163,2.38287013 C7.18004879,2.39193939 7.21341916,2.40505628 7.23007178,2.38025108 C7.23849579,2.34538095 7.2734728,2.36949351 7.30019949,2.35219913 C7.40773589,2.30304329 7.53861201,2.27520779 7.65155453,2.24771861 C7.64925313,2.25250216 7.64599642,2.25810823 7.6413719,2.2605974 C7.68418672,2.25722078 7.73219055,2.24215584 7.77424547,2.22551082 C7.76634253,2.20198268 7.79591341,2.20445022 7.80566181,2.19408225 C7.82611392,2.1955974 7.85881124,2.17297835 7.86736552,2.20087879 C7.89059668,2.17509957 7.93751494,2.18851948 7.9752493,2.16962338 C7.96858391,2.13919048 8.00953155,2.15795671 8.0205175,2.14066234 C8.07809604,2.13460173 8.16426845,2.09304329 8.22629783,2.11771861 C8.23415734,2.10986147 8.24737957,2.10795671 8.25838723,2.10635498 L8.23068352,2.10139827 C8.23724036,2.06906061 8.2709364,2.08438528 8.29199642,2.07462338 L8.31501047,2.09369264 L8.47135402,2.05546753 L8.48014713,2.03849784 L8.77870013,1.973 L8.60911264,1.99748052 L8.61032848,1.97488312 C8.64806284,1.95598701 8.74153027,1.96492641 8.77264266,1.93131169 C8.77320715,1.93109524 8.77379336,1.93090043 8.77435785,1.93068398 C8.86363499,1.90921212 8.95302069,1.88834632 9.04244981,1.8677619 L9.02937957,1.88752381 C9.03726079,1.89535931 9.05864649,1.88780519 9.05458646,1.90631169 L9.10311137,1.89932035 C9.08313691,1.9008355 9.06694023,1.89685281 9.07215096,1.87239394 C9.07412669,1.86683117 9.07666692,1.86245887 9.07966309,1.85901732 C9.09881252,1.85464502 9.11796194,1.85031602 9.13711137,1.84598701 C9.14785849,1.84553247 9.1585622,1.84406061 9.16828889,1.83908225 C10.7050628,1.49252381 12.2471778,1.11137662 13.8243566,1.0868961 C13.8740539,1.07637662 13.9235124,1.06522944 13.9762276,1.06774026 L13.9894064,1.08464502 C14.1026529,1.08308658 14.2159428,1.08176623 14.3292978,1.08064069 C14.3083029,0.99334632 14.433469,1.04977489 14.4675341,1.00167965 C14.4879862,1.03832468 14.5008393,0.984645022 14.5293464,0.990034632 C14.5548572,1.00196104 14.5798036,0.979428571 14.60234,0.99791342 L14.5824524,1.03479654 L14.6032736,1.04851948 L14.4006848,1.07704762 C14.5711625,1.07488312 14.7260731,1.04737229 14.9024996,1.03206926 C14.9444243,1.05726407 14.9932097,1.0418961 15.0436886,1.03129004 C15.0802289,1.00544589 15.1421714,1.01215584 15.1821203,0.995835498 C15.2382008,0.995012987 15.306635,0.984082251 15.3670577,0.967502165 C15.4220526,0.937025974 15.4952633,0.960878788 15.5432889,0.931722944 C15.4889236,0.921354978 15.4295213,0.922480519 15.3701625,0.926744589 C15.3075252,0.931268398 15.2449313,0.939298701 15.1883298,0.941419913 L15.2126465,0.905034632 C15.2345315,0.948714286 15.2554613,0.902805195 15.2989275,0.914406926 L15.3484945,0.892242424 C15.3467793,0.887458874 15.3359888,0.883995671 15.3392455,0.875186147 C15.346128,0.873627706 15.3496452,0.862545455 15.3582212,0.865770563 C15.3596542,0.87278355 15.3682519,0.876051948 15.3649951,0.884861472 L15.3600667,0.888909091 C15.3643655,0.88761039 15.3687729,0.886744589 15.3732672,0.886116883 C15.4389006,0.87752381 15.5216861,0.937285714 15.5521037,0.854645022 L15.6082927,0.83321645 C15.5696465,0.799190476 15.5135877,0.839017316 15.4800003,0.819298701 C15.446847,0.819298701 15.4091995,0.835186147 15.3774792,0.830748918 C15.368469,0.829493506 15.3598713,0.826896104 15.3520769,0.821484848 C15.3603923,0.80778355 15.3699236,0.799818182 15.3801714,0.795164502 C15.4311714,0.771917749 15.5017768,0.838064935 15.5498457,0.776376623 C15.5795252,0.791073593 15.5983706,0.76330303 15.620234,0.767935065 L15.6225571,0.7475671 C15.6090309,0.74838961 15.5927691,0.753497835 15.5805456,0.743 C15.6094,0.725489177 15.6401216,0.731095238 15.6732966,0.734688312 C15.6833489,0.783974026 15.6226874,0.726917749 15.6305252,0.775965368 C15.7244702,0.776939394 15.8362621,0.79825974 15.9238023,0.757264069 C15.9171586,0.756549784 15.9102761,0.75808658 15.9088215,0.751051948 C15.9478802,0.762177489 15.9531778,0.696203463 15.9857231,0.724969697 C15.960234,0.752047619 16.0008125,0.749558442 16.0078687,0.766376623 C16.0359415,0.716636364 16.0813834,0.769753247 16.1237857,0.751419913 C16.1897665,0.742502165 16.2621305,0.775597403 16.3321063,0.751051948 C16.3067257,0.718454545 16.2753962,0.777004329 16.2375098,0.736203463 C16.1693361,0.744861472 16.0943668,0.734450216 16.0225456,0.735835498 C16.0161625,0.732848485 16.0043298,0.738454545 16.0012033,0.726636364 C15.9997704,0.719601732 16.0113425,0.716268398 16.0140782,0.711961039 L15.9609722,0.706225108 C15.9617538,0.699406926 15.9596695,0.678562771 15.9756708,0.675683983 C16.0086069,0.720554113 16.0578917,0.661636364 16.0973413,0.688887446 C16.2167972,0.701831169 16.3173642,0.664536797 16.4579019,0.688974026 C16.4666299,0.710554113 16.4896439,0.685532468 16.5051458,0.687199134 C16.5336312,0.692588745 16.5517384,0.710619048 16.5604664,0.732199134 L16.5640922,0.700467532 L16.6831356,0.697329004 C16.681377,0.692285714 16.6820284,0.688454545 16.6838955,0.685402597 C16.6793796,0.689883117 16.6702391,0.691463203 16.6654409,0.695402597 C16.5521944,0.628064935 16.4144358,0.677350649 16.290681,0.64330303 C16.2178176,0.653757576 16.1416759,0.634038961 16.0769977,0.631614719 C16.0417602,0.646138528 16.0085852,0.64252381 15.9769517,0.625359307 C15.959778,0.657891775 15.9264728,0.635943723 15.9056299,0.622199134 L15.917202,0.579839827 C15.9274715,0.587848485 15.9812072,0.5684329 15.9721101,0.608757576 C15.9907167,0.583238095 16.0341829,0.594818182 16.0522467,0.573844156 C16.0655341,0.575272727 16.0840105,0.570380952 16.0937589,0.582935065 L16.075695,0.603909091 C16.0801241,0.604406926 16.0870066,0.602848485 16.0906542,0.610121212 C16.0790603,0.574450216 16.1171854,0.573995671 16.1376158,0.571614719 C16.3728802,0.590229437 16.588105,0.58834632 16.8167257,0.606246753 C16.8123183,0.571268398 16.783681,0.571268398 16.7581701,0.566311688" id="Fill-200" fill="#FFFFFF" mask="url(#mask-4)"></path>
                </g>
                <g id="Group-205" transform="translate(0.000000, 2.923077)">
                    <mask id="mask-6" fill="white">
                        <use xlink:href="#path-5"></use>
                    </mask>
                    <g id="Clip-204"></g>
                    <path d="M4.61780388,7.76054601 L4.6037097,7.76666053 L4.59816953,7.74588344 C4.62939391,7.71848057 4.72335512,7.70097546 4.74372078,7.6620593 C4.81826925,7.61126176 4.90611413,7.55702863 4.98919446,7.52801022 L4.98622493,7.53729448 C5.00058504,7.52835787 5.01496731,7.51948262 5.0292831,7.51046421 C5.04539391,7.50207975 5.07149917,7.48846012 5.08763213,7.48005521 C5.09527756,7.47649693 5.10225817,7.47185481 5.10775402,7.46510634 C5.1057374,7.46486094 5.10367645,7.46508589 5.10163767,7.46492229 C5.19276233,7.40723313 5.28335512,7.34878732 5.3730615,7.28917587 C5.37698393,7.28655828 5.38090637,7.2839407 5.38482881,7.28132311 C5.78706704,7.0134499 7.62997008,5.84115951 7.62997008,4.363 C7.62997008,3.69582209 7.17933296,3.17322495 6.5923856,2.89680368 C6.4059036,2.80899182 6.2272,2.75970757 6.04255734,2.72265235 C4.71814737,2.45686503 3.57740499,2.87680368 2.8590892,3.283 C2.7757651,3.33013701 2.62560443,3.44050511 2.55429141,3.53379755 C2.58638006,3.42289775 2.67934404,3.25036196 2.69343823,3.22531084 C2.77321662,3.083818 3.57124432,1.82115951 3.61111136,1.71011656 C3.65281773,1.70392025 7.28975956,1.1523047 7.66903934,1.10668098 C7.79546593,1.09146626 8.01111136,1.02637423 7.98837452,0.874206544 C7.96931634,0.746660532 7.90188144,0.534820041 7.86653518,0.447887526 C7.81678449,0.325535787 7.72743269,0.181650307 7.67098947,0.101609407 C7.59305042,-0.00890184049 7.43715014,-0.00571165644 7.14165983,0.057805726 C6.93233019,0.102775051 2.804441,0.775494888 2.62899501,0.810014315 C2.56142715,0.823347648 2.5166626,0.849298569 2.49383712,0.890852761 C2.43566537,0.996599182 2.46214737,1.12070961 2.49077895,1.16956442 C2.54004211,1.2536544 2.44366537,1.38342945 2.33532188,1.58576074 C2.32630249,1.602591 1.36632465,3.25649693 1.22664598,3.52060736 C1.13698393,3.69021881 1.04936066,3.89347035 1.14704488,4.15991207 C1.18301163,4.25850102 1.57126648,4.76134356 1.69824709,4.97790798 L1.78728864,5.12907362 L1.90223601,5.02212065 C1.90427479,5.02021881 3.38875125,3.7630818 5.33155457,3.7630818 C6.33445762,3.7630818 6.53221939,4.05807157 6.53221939,4.23181391 C6.53221939,5.29725358 5.02611413,6.27187526 3.80949363,6.96574029 C3.50629141,7.13868507 2.57233019,7.67469734 2.01634127,7.99739673 C1.08182604,8.53989162 0.0688177285,9.18169121 0.0297484765,9.21798978 C-0.00814626039,9.2532045 -0.00765872576,9.28107771 0.01886759,9.35124131 C0.0453939058,9.42140491 0.186247091,9.64627198 0.487942382,9.92944172 C0.541039335,9.97923722 0.614945152,10.0039407 0.681493629,9.97496319 L0.9712,9.79756033 C1.14631357,9.68621063 2.0177374,9.20306135 2.26786482,9.0627546 C2.28297839,9.06038241 2.29806981,9.05833742 2.31318338,9.05680368 C2.32769861,9.04778528 2.34208089,9.03839877 2.35619723,9.02831697 C2.3519867,9.02490184 2.35039114,9.02052556 2.35074571,9.01641513 C2.3513662,9.00933947 2.35785928,9.00306135 2.36745485,9.00375665 C2.37412521,9.00289775 2.37902271,8.99819427 2.38407535,8.99778528 C2.38606981,8.99764213 2.38806427,8.99803067 2.39021385,8.99978937 L2.39449086,9.00948262 C2.44621385,8.97659918 2.51320554,8.95610838 2.55265152,8.91195706 C2.54507258,8.91706953 2.53922216,8.92602658 2.52993684,8.92723313 C2.5252831,8.92541309 2.52127202,8.92471779 2.51992022,8.92228425 C2.51954349,8.92158896 2.51927756,8.92087321 2.5193662,8.91987117 C2.53498947,8.90727403 2.55134404,8.90085276 2.5677651,8.89600613 C2.60082881,8.88633333 2.63415845,8.883818 2.66247978,8.85508589 C2.66108366,8.85191616 2.6592,8.84897137 2.65853518,8.84625153 C2.65800332,8.8439816 2.65824709,8.84187526 2.66072909,8.83993252 C2.66285651,8.84066871 2.66509474,8.84109816 2.66733296,8.84142536 C2.70013075,8.84621063 2.74298947,8.80751943 2.77758227,8.78095501 C2.78540499,8.77494274 2.79282881,8.76954397 2.79958781,8.76543354 L2.80080665,8.76821472 L2.80384266,8.77514724 C2.84960443,8.76557669 2.8746903,8.74030061 2.89924432,8.71475869 C2.92645762,8.68643558 2.95296177,8.65780573 3.00616953,8.64980982 L3.01062382,8.65430879 L3.0193108,8.663 C3.09084543,8.62498364 3.14879557,8.56713088 3.23391468,8.54891002 C3.23356011,8.54148671 3.23559889,8.53549489 3.23910028,8.53038241 C3.25033573,8.51396115 3.27765983,8.50715133 3.29946593,8.49727403 L3.29953241,8.49727403 C3.31641884,8.50228425 3.35267368,8.50680368 3.3630892,8.48028016 C3.36293407,8.44643558 3.40348809,8.46066871 3.42575956,8.43878732 C3.46824155,8.40770348 3.51652964,8.37958487 3.56628033,8.3533272 C3.57354903,8.34899182 3.58092853,8.34484049 3.58826371,8.34058691 C3.6397651,8.31248875 3.6913108,8.28443149 3.74267922,8.25625153 C3.74183712,8.26095501 3.74037452,8.26623108 3.73691745,8.26948262 C3.77769307,8.25469734 3.82010859,8.22790798 3.85623047,8.20138446 C3.85454626,8.19919632 3.85359335,8.19723313 3.85297285,8.19539264 C3.84809751,8.18091411 3.87185374,8.17502454 3.87754903,8.16434969 C3.89634127,8.16048466 3.91905596,8.13582209 3.93556565,8.14954397 C3.93700609,8.15075051 3.93849086,8.15175256 3.93984266,8.1536135 C3.94212521,8.14905317 3.94547147,8.14535174 3.94921662,8.14195706 C3.96009751,8.13590389 3.97100055,8.12989162 3.98188144,8.12383845 C4.00009751,8.11651738 4.02030803,8.10948262 4.03590914,8.09582209 L4.03595346,8.09539264 C4.02150471,8.07042331 4.065959,8.07571984 4.07149917,8.05725358 C4.11781496,8.03917587 4.17667368,7.99232515 4.23506704,7.98199796 C4.24530526,7.98017791 4.25549917,7.97935992 4.26564875,7.98013701 C4.27096731,7.97089366 4.2833108,7.96553579 4.29359335,7.96109816 L4.26691191,7.9639816 L4.26505042,7.96418609 C4.26183712,7.9331636 4.2993108,7.93778528 4.31697285,7.9232045 L4.32951579,7.92807157 L4.3451169,7.93414519 L4.48643546,7.85678323 L4.489959,7.83905317 L4.49512244,7.83637423 C4.49456842,7.83516769 4.49410305,7.83396115 4.49357119,7.83273415 C4.53496731,7.80866462 4.57658504,7.78490184 4.61780388,7.76054601" id="Fill-203" fill="#FFFFFF" mask="url(#mask-6)"></path>
                </g>
            </g>
        </g>
    </g>
</svg>