{
    "key": "group_5e8b970c7ecdd",
    "title": "Header Block",
    "fields": [
        {
            "key": "field_5e8b9735b00eb",
            "label": "Header Paragraph Intro",
            "name": "header_paragraph_intro",
            "type": "textarea",
            "instructions": "Header intro is optional.",
            "required": 0,
            "conditional_logic": 0,
            "wrapper": {
                "width": "",
                "class": "",
                "id": ""
            },
            "default_value": "",
            "placeholder": "",
            "maxlength": "",
            "rows": 3,
            "new_lines": ""
        },
        {
            "key": "field_5e8b9710b00e9",
            "label": "Header Button Text",
            "name": "header_button_text",
            "type": "text",
            "instructions": "Button is optional.",
            "required": 0,
            "conditional_logic": 0,
            "wrapper": {
                "width": "",
                "class": "",
                "id": ""
            },
            "default_value": "",
            "placeholder": "",
            "prepend": "",
            "append": "",
            "maxlength": ""
        },
        {
            "key": "field_5e8b971cb00ea",
            "label": "Header Button Link",
            "name": "header_button_link",
            "type": "url",
            "instructions": "",
            "required": 0,
            "conditional_logic": 0,
            "wrapper": {
                "width": "",
                "class": "",
                "id": ""
            },
            "default_value": "",
            "placeholder": ""
        }
    ],
    "location": [
        [
            {
                "param": "page_template",
                "operator": "==",
                "value": "default"
            }
        ],
        [
            {
                "param": "page_template",
                "operator": "==",
                "value": "living-in-salina.php"
            }
        ]
    ],
    "menu_order": 0,
    "position": "normal",
    "style": "default",
    "label_placement": "top",
    "instruction_placement": "label",
    "hide_on_screen": "",
    "active": 1,
    "description": "",
    "modified": 1586890378
}